verif/run/results/uditya_apt/fifo_sim.vcd
$date
    Mar  5, 2026  10:12:17
$end
$version
    TOOL:	xmsim	24.09-s001
$end
$timescale
    1 ns
$end

$scope module fifo_tb_top $end
$var reg       1 !    wrclk $end
$var reg       1 "    rdclk $end

$scope module dut_if $end
$var wire      1 #    wrclk  $end
$var wire      1 $    rdclk  $end
$var reg       1 %    wrst_n $end
$var reg       1 &    rrst_n $end
$var reg       1 '    wr_en $end
$var reg       1 (    rd_en $end
$var reg      64 )    data_in [63:0] $end
$var reg      64 *    data_out [63:0] $end
$var reg       1 +    fifo_full $end
$var reg       1 ,    fifo_empty $end
$var reg       4 -    b_rptr_mon [3:0] $end
$upscope $end


$scope module dut $end
$var parameter 32 .    FIFO_DEPTH $end
$var parameter 32 /    FIFO_WIDTH $end
$var wire      1 0    wrclk  $end
$var wire      1 1    wrst_n  $end
$var wire      1 2    rdclk  $end
$var wire      1 3    rrst_n  $end
$var wire      1 4    wr_en  $end
$var wire      1 5    rd_en  $end
$var wire     64 6    data_in [63:0] $end
$var reg      64 7    data_out [63:0] $end
$var reg       1 8    fifo_full $end
$var reg       1 9    fifo_empty $end
$var parameter 32 :    PTR_WIDTH $end
$var reg       4 ;    g_wptr_sync [3:0] $end
$var reg       4 <    g_rptr_sync [3:0] $end
$var reg       4 =    g_wptr [3:0] $end
$var reg       4 >    g_rptr [3:0] $end
$var reg       4 ?    b_wptr [3:0] $end
$var reg       4 @    b_rptr [3:0] $end
$var wire      3 A    waddr [2:0] $end
$var wire      3 B    raddr [2:0] $end

$scope module sync_wptr $end
$var parameter 32 C    WIDTH $end
$var wire      1 2    clk  $end
$var wire      1 3    rst_n  $end
$var wire      4 D    d_in [3:0] $end
$var reg       4 E    d_out [3:0] $end
$var reg       4 F    q1 [3:0] $end
$upscope $end


$scope module sync_rptr $end
$var parameter 32 G    WIDTH $end
$var wire      1 0    clk  $end
$var wire      1 1    rst_n  $end
$var wire      4 H    d_in [3:0] $end
$var reg       4 I    d_out [3:0] $end
$var reg       4 J    q1 [3:0] $end
$upscope $end


$scope module wrptr_h $end
$var parameter 32 K    PTR_WIDTH $end
$var wire      1 0    wrclk  $end
$var wire      1 1    wrst_n  $end
$var wire      1 4    wr_en  $end
$var wire      4 L    g_rptr_sync [3:0] $end
$var reg       4 M    b_wptr [3:0] $end
$var reg       4 N    g_wptr [3:0] $end
$var reg       1 O    fifo_full $end
$var reg       4 P    b_wptr_next [3:0] $end
$var reg       4 Q    g_wptr_next [3:0] $end
$var reg       1 R    wrap_around $end
$var wire      1 S    wfull  $end
$upscope $end


$scope module rdptr_h $end
$var parameter 32 T    PTR_WIDTH $end
$var wire      1 2    rdclk  $end
$var wire      1 3    rrst_n  $end
$var wire      1 5    rd_en  $end
$var wire      4 U    g_wptr_sync [3:0] $end
$var reg       4 V    b_rptr [3:0] $end
$var reg       4 W    g_rptr [3:0] $end
$var reg       1 X    fifo_empty $end
$var reg       4 Y    b_rptr_next [3:0] $end
$var reg       4 Z    g_rptr_next [3:0] $end
$var wire      1 [    rempty  $end
$upscope $end


$scope module fifo $end
$var parameter 32 \    FIFO_DEPTH $end
$var parameter 32 ]    FIFO_WIDTH $end
$var parameter 32 ^    PTR_WIDTH $end
$var wire      1 0    wrclk  $end
$var wire      1 4    wr_en  $end
$var wire      1 2    rdclk  $end
$var wire      1 5    rd_en  $end
$var wire      4 _    b_wptr [3:0] $end
$var wire      4 `    b_rptr [3:0] $end
$var wire     64 6    data_in [63:0] $end
$var wire      1 a    fifo_full  $end
$var wire      1 b    fifo_empty  $end
$var reg      64 c    data_out [63:0] $end
$var reg      64 d    fifo[0] [63:0] $end
$var reg      64 e    fifo[1] [63:0] $end
$var reg      64 f    fifo[2] [63:0] $end
$var reg      64 g    fifo[3] [63:0] $end
$var reg      64 h    fifo[4] [63:0] $end
$var reg      64 i    fifo[5] [63:0] $end
$var reg      64 j    fifo[6] [63:0] $end
$var reg      64 k    fifo[7] [63:0] $end
$upscope $end

$upscope $end

$upscope $end

$enddefinitions $end
$dumpvars
b11 ^
b1000000 ]
b1000 \
b11 T
b11 K
b11 G
b11 C
b11 :
b1000000 /
b1000 .
0!
0"
0#
0$
x%
x&
x'
x(
bx )
bx *
x+
x,
bx -
00
x1
02
x3
x4
x5
bx 6
bx 7
x8
x9
bx ;
bx <
bx =
bx >
bx ?
bx @
bz A
bz B
bx D
bx E
bx F
bx H
bx I
bx J
bx L
bx M
bx N
xO
bx P
bx Q
xR
xS
bx U
bx V
bx W
xX
bx Y
bx Z
x[
bx _
bx `
xa
xb
bx c
bx d
bx e
bx f
bx g
bx h
bx i
bx j
bx k
$end
#10
1"
12
1$
#20
0"
02
0$
#25
1!
10
1#
0%
0&
0'
0(
b0 )
b0 6
05
04
03
01
1X
b0 V
b0 W
0O
b0 M
b0 N
b0 Y
b0 -
b0 P
b0 Z
b0 Q
b0 =
b0 ?
08
b0 >
b0 @
19
1b
b0 `
b0 H
0a
b0 _
b0 D
1,
0+
#30
1"
12
1$
b0 F
b0 E
b0 ;
b0 U
1[
#40
0"
02
0$
#50
0!
1"
12
1$
00
0#
#60
0"
02
0$
#70
1"
12
1$
#75
1!
10
1#
b0 J
b0 I
b0 <
b0 L
0S
#80
0"
02
0$
#90
1"
12
1$
#100
0!
0"
02
0$
00
0#
#110
1"
12
1$
#120
0"
02
0$
#125
1!
10
1#
#130
1"
12
1$
#140
0"
02
0$
#150
0!
1"
12
1$
00
0#
#160
0"
02
0$
#170
1"
12
1$
#175
1!
10
1#
#180
0"
02
0$
#190
1"
12
1$
#200
0!
0"
02
0$
00
0#
#210
1"
12
1$
#220
0"
02
0$
#225
1!
10
1#
#230
1"
12
1$
#240
0"
02
0$
#250
0!
1"
12
1$
00
0#
#260
0"
02
0$
#270
1"
12
1$
#275
1!
10
1#
#280
0"
02
0$
#290
1"
12
1$
#300
0!
0"
02
0$
00
0#
#310
1"
12
1$
#320
0"
02
0$
#325
1!
10
1#
#330
1"
12
1$
#340
0"
02
0$
#350
0!
1"
12
1$
00
0#
#360
0"
02
0$
#370
1"
12
1$
1%
1&
13
11
#375
1!
10
1#
#380
0"
02
0$
#390
1"
12
1$
#400
0!
0"
02
0$
00
0#
#410
1"
12
1$
#420
0"
02
0$
#425
1!
10
1#
1'
b10100001 )
b10100001 6
14
b1 P
b1 Q
#430
1"
12
1$
#440
0"
02
0$
#450
0!
1"
12
1$
00
0#
#460
0"
02
0$
#470
1"
12
1$
#475
1!
10
1#
b1 M
b1 N
b10100001 d
0'
b10 P
b11 Q
04
b1 P
b1 =
b1 ?
b1 Q
b1 _
b1 D
#480
0"
02
0$
#490
1"
12
1$
b1 F
#500
0!
0"
02
0$
00
0#
#510
1"
12
1$
b1 E
b1 ;
b1 U
0[
#520
0"
02
0$
#525
1!
10
1#
1'
b10100010 )
b10100010 6
14
b10 P
b11 Q
#530
1"
12
1$
0X
09
0b
0,
#540
0"
02
0$
#550
0!
1"
12
1$
00
0#
#560
0"
02
0$
#570
1"
12
1$
#575
1!
10
1#
b10 M
b11 N
b10100010 e
0'
b11 P
b10 Q
04
b10 P
b11 =
b10 ?
b11 Q
b10 _
b11 D
#580
0"
02
0$
#590
1"
12
1$
b11 F
#600
0!
0"
02
0$
00
0#
#610
1"
12
1$
b11 E
b11 ;
b11 U
#620
0"
02
0$
#625
1!
10
1#
1'
b10100011 )
b10100011 6
14
b11 P
b10 Q
#630
1"
12
1$
#640
0"
02
0$
#650
0!
1"
12
1$
00
0#
#660
0"
02
0$
#670
1"
12
1$
#675
1!
10
1#
b11 M
b10 N
b10100011 f
0'
b100 P
b110 Q
04
b11 P
b10 =
b11 ?
b10 Q
b11 _
b10 D
#680
0"
02
0$
#690
1"
12
1$
b10 F
#700
0!
0"
02
0$
00
0#
#710
1"
12
1$
b10 E
b10 ;
b10 U
#720
0"
02
0$
#725
1!
10
1#
1'
b10100100 )
b10100100 6
14
b100 P
b110 Q
#730
1"
12
1$
#740
0"
02
0$
#750
0!
1"
12
1$
00
0#
#760
0"
02
0$
#770
1"
12
1$
#775
1!
10
1#
b100 M
b110 N
b10100100 g
0'
b101 P
b111 Q
04
b100 P
b110 =
b100 ?
b110 Q
b100 _
b110 D
#780
0"
02
0$
#790
1"
12
1$
b110 F
#800
0!
0"
02
0$
00
0#
#810
1"
12
1$
b110 E
b110 ;
b110 U
#820
0"
02
0$
#825
1!
10
1#
b0 )
b0 6
#830
1"
12
1$
#840
0"
02
0$
#850
0!
1"
12
1$
00
0#
#860
0"
02
0$
#870
1"
12
1$
#875
1!
10
1#
#880
0"
02
0$
#890
1"
12
1$
1(
0(
#900
0!
0"
02
0$
00
0#
#910
1"
12
1$
#920
0"
02
0$
#925
1!
10
1#
#930
1"
12
1$
#940
0"
02
0$
#950
0!
1"
12
1$
00
0#
#960
0"
02
0$
#970
1"
12
1$
#975
1!
10
1#
#980
0"
02
0$
#990
1"
12
1$
1(
0(
#1000
0!
0"
02
0$
00
0#
#1010
1"
12
1$
#1020
0"
02
0$
#1025
1!
10
1#
#1030
1"
12
1$
#1040
0"
02
0$
#1050
0!
1"
12
1$
00
0#
#1060
0"
02
0$
#1070
1"
12
1$
#1075
1!
10
1#
#1080
0"
02
0$
#1090
1"
12
1$
1(
0(
#1100
0!
0"
02
0$
00
0#
#1110
1"
12
1$
#1120
0"
02
0$
#1125
1!
10
1#
#1130
1"
12
1$
#1140
0"
02
0$
#1150
0!
1"
12
1$
00
0#
#1160
0"
02
0$
#1170
1"
12
1$
#1175
1!
10
1#
#1180
0"
02
0$
#1190
1"
12
1$
1(
0(
#1200
0!
0"
02
0$
00
0#
#1210
1"
12
1$
#1220
0"
02
0$
#1225
1!
10
1#
1'
b1011000000000001 )
b1011000000000001 6
14
b101 P
b111 Q
#1230
1"
12
1$
#1240
0"
02
0$
#1250
0!
1"
12
1$
00
0#
#1260
0"
02
0$
#1270
1"
12
1$
#1275
1!
10
1#
b101 M
b111 N
b1011000000000001 h
0'
b110 P
b101 Q
04
b101 P
b111 =
b101 ?
b111 Q
b101 _
b111 D
#1280
0"
02
0$
#1290
1"
12
1$
b111 F
#1300
0!
0"
02
0$
00
0#
#1310
1"
12
1$
b111 E
b111 ;
b111 U
#1320
0"
02
0$
#1325
1!
10
1#
1'
b1011000000000010 )
b1011000000000010 6
14
b110 P
b101 Q
#1330
1"
12
1$
#1340
0"
02
0$
#1350
0!
1"
12
1$
00
0#
#1360
0"
02
0$
#1370
1"
12
1$
#1375
1!
10
1#
b110 M
b101 N
b1011000000000010 i
0'
b111 P
b100 Q
04
b110 P
b101 =
b110 ?
b101 Q
b110 _
b101 D
#1380
0"
02
0$
#1390
1"
12
1$
b101 F
#1400
0!
0"
02
0$
00
0#
#1410
1"
12
1$
b101 E
b101 ;
b101 U
#1420
0"
02
0$
#1425
1!
10
1#
1'
b1011000000000011 )
b1011000000000011 6
14
b111 P
b100 Q
#1430
1"
12
1$
#1440
0"
02
0$
#1450
0!
1"
12
1$
00
0#
#1460
0"
02
0$
#1470
1"
12
1$
#1475
1!
10
1#
b111 M
b100 N
b1011000000000011 j
0'
b1000 P
b1100 Q
1S
04
b111 P
b100 =
b111 ?
b100 Q
0S
b111 _
b100 D
#1480
0"
02
0$
#1490
1"
12
1$
b100 F
#1500
0!
0"
02
0$
00
0#
#1510
1"
12
1$
b100 E
b100 ;
b100 U
#1520
0"
02
0$
#1525
1!
10
1#
1'
b1011000000000100 )
b1011000000000100 6
14
b1000 P
b1100 Q
1S
#1530
1"
12
1$
#1540
0"
02
0$
#1550
0!
1"
12
1$
00
0#
#1560
0"
02
0$
#1570
1"
12
1$
#1575
1!
10
1#
1O
b1000 M
b1100 N
b1011000000000100 k
0'
04
b1100 =
b1000 ?
18
1a
b1000 _
b1100 D
1+
#1580
0"
02
0$
#1590
1"
12
1$
b1100 F
#1600
0!
0"
02
0$
00
0#
#1610
1"
12
1$
b1100 E
b1100 ;
b1100 U
#1620
0"
02
0$
#1625
1!
10
1#
1'
b1011000000000101 )
b1011000000000101 6
14
#1630
1"
12
1$
#1640
0"
02
0$
#1650
0!
1"
12
1$
00
0#
#1660
0"
02
0$
#1670
1"
12
1$
#1675
1!
10
1#
0'
04
#1680
0"
02
0$
#1690
1"
12
1$
#1700
0!
0"
02
0$
00
0#
#1710
1"
12
1$
#1720
0"
02
0$
#1725
1!
10
1#
1'
b1011000000000110 )
b1011000000000110 6
14
#1730
1"
12
1$
#1740
0"
02
0$
#1750
0!
1"
12
1$
00
0#
#1760
0"
02
0$
#1770
1"
12
1$
#1775
1!
10
1#
0'
04
#1780
0"
02
0$
#1790
1"
12
1$
#1800
0!
0"
02
0$
00
0#
#1810
1"
12
1$
#1820
0"
02
0$
#1825
1!
10
1#
1'
b1011000000000111 )
b1011000000000111 6
14
#1830
1"
12
1$
#1840
0"
02
0$
#1850
0!
1"
12
1$
00
0#
#1860
0"
02
0$
#1870
1"
12
1$
#1875
1!
10
1#
0'
04
#1880
0"
02
0$
#1890
1"
12
1$
#1900
0!
0"
02
0$
00
0#
#1910
1"
12
1$
#1920
0"
02
0$
#1925
1!
10
1#
1'
b1011000000001000 )
b1011000000001000 6
14
#1930
1"
12
1$
#1940
0"
02
0$
#1950
0!
1"
12
1$
00
0#
#1960
0"
02
0$
#1970
1"
12
1$
#1975
1!
10
1#
0'
04
#1980
0"
02
0$
#1990
1"
12
1$
#2000
0!
0"
02
0$
00
0#
#2010
1"
12
1$
#2020
0"
02
0$
#2025
1!
10
1#
b0 )
b0 6
#2030
1"
12
1$
#2040
0"
02
0$
#2050
0!
1"
12
1$
00
0#
#2060
0"
02
0$
#2070
1"
12
1$
#2075
1!
10
1#
#2080
0"
02
0$
#2090
1"
12
1$
1(
0(
#2100
0!
0"
02
0$
00
0#
#2110
1"
12
1$
#2120
0"
02
0$
#2125
1!
10
1#
#2130
1"
12
1$
#2140
0"
02
0$
#2150
0!
1"
12
1$
00
0#
#2160
0"
02
0$
#2170
1"
12
1$
#2175
1!
10
1#
#2180
0"
02
0$
#2190
1"
12
1$
1(
0(
#2200
0!
0"
02
0$
00
0#
#2210
1"
12
1$
#2220
0"
02
0$
#2225
1!
10
1#
#2230
1"
12
1$
#2240
0"
02
0$
#2250
0!
1"
12
1$
00
0#
#2260
0"
02
0$
#2270
1"
12
1$
#2275
1!
10
1#
#2280
0"
02
0$
#2290
1"
12
1$
1(
0(
#2300
0!
0"
02
0$
00
0#
#2310
1"
12
1$
#2320
0"
02
0$
#2325
1!
10
1#
#2330
1"
12
1$
#2340
0"
02
0$
#2350
0!
1"
12
1$
00
0#
#2360
0"
02
0$
#2370
1"
12
1$
#2375
1!
10
1#
#2380
0"
02
0$
#2390
1"
12
1$
1(
0(
#2400
0!
0"
02
0$
00
0#
#2410
1"
12
1$
#2420
0"
02
0$
#2425
1!
10
1#
#2430
1"
12
1$
#2440
0"
02
0$
#2450
0!
1"
12
1$
00
0#
#2460
0"
02
0$
#2470
1"
12
1$
#2475
1!
10
1#
#2480
0"
02
0$
#2490
1"
12
1$
1(
0(
#2500
0!
0"
02
0$
00
0#
#2510
1"
12
1$
#2520
0"
02
0$
#2525
1!
10
1#
#2530
1"
12
1$
#2540
0"
02
0$
#2550
0!
1"
12
1$
00
0#
#2560
0"
02
0$
#2570
1"
12
1$
#2575
1!
10
1#
#2580
0"
02
0$
#2590
1"
12
1$
1(
0(
#2600
0!
0"
02
0$
00
0#
#2610
1"
12
1$
#2620
0"
02
0$
#2625
1!
10
1#
#2630
1"
12
1$
#2640
0"
02
0$
#2650
0!
1"
12
1$
00
0#
#2660
0"
02
0$
#2670
1"
12
1$
#2675
1!
10
1#
#2680
0"
02
0$
#2690
1"
12
1$
1(
0(
#2700
0!
0"
02
0$
00
0#
#2710
1"
12
1$
#2720
0"
02
0$
#2725
1!
10
1#
#2730
1"
12
1$
#2740
0"
02
0$
#2750
0!
1"
12
1$
00
0#
#2760
0"
02
0$
#2770
1"
12
1$
#2775
1!
10
1#
#2780
0"
02
0$
#2790
1"
12
1$
1(
0(
#2800
0!
0"
02
0$
00
0#
#2810
1"
12
1$
#2820
0"
02
0$
#2825
1!
10
1#
1'
14
#2830
1"
12
1$
#2840
0"
02
0$
#2850
0!
1"
12
1$
00
0#
#2860
0"
02
0$
#2870
1"
12
1$
#2875
1!
10
1#
0'
04
#2880
0"
02
0$
#2890
1"
12
1$
#2900
0!
0"
02
0$
00
0#
#2910
1"
12
1$
#2920
0"
02
0$
#2925
1!
10
1#
#2930
1"
12
1$
#2940
0"
02
0$
#2950
0!
1"
12
1$
00
0#
#2960
0"
02
0$
#2970
1"
12
1$
#2975
1!
10
1#
#2980
0"
02
0$
#2990
1"
12
1$
1(
0(
#3000
0!
0"
02
0$
00
0#
#3010
1"
12
1$
#3020
0"
02
0$
#3025
1!
10
1#
1'
b1111111111111111111111111111111111111111111111111111111111111111 )
b1111111111111111111111111111111111111111111111111111111111111111 6
14
#3030
1"
12
1$
#3040
0"
02
0$
#3050
0!
1"
12
1$
00
0#
#3060
0"
02
0$
#3070
1"
12
1$
#3075
1!
10
1#
0'
04
#3080
0"
02
0$
#3090
1"
12
1$
#3100
0!
0"
02
0$
00
0#
#3110
1"
12
1$
#3120
0"
02
0$
#3125
1!
10
1#
b0 )
b0 6
#3130
1"
12
1$
#3140
0"
02
0$
#3150
0!
1"
12
1$
00
0#
#3160
0"
02
0$
#3170
1"
12
1$
#3175
1!
10
1#
#3180
0"
02
0$
#3190
1"
12
1$
1(
0(
#3200
0!
0"
02
0$
00
0#
#3210
1"
12
1$
#3220
0"
02
0$
#3225
1!
10
1#
1'
b1010101010101010101010101010101010101010101010101010101010101010 )
b1010101010101010101010101010101010101010101010101010101010101010 6
14
#3230
1"
12
1$
#3240
0"
02
0$
#3250
0!
1"
12
1$
00
0#
#3260
0"
02
0$
#3270
1"
12
1$
#3275
1!
10
1#
0'
04
#3280
0"
02
0$
#3290
1"
12
1$
#3300
0!
0"
02
0$
00
0#
#3310
1"
12
1$
#3320
0"
02
0$
#3325
1!
10
1#
1'
b101010101010101010101010101010101010101010101010101010101010101 )
b101010101010101010101010101010101010101010101010101010101010101 6
14
#3330
1"
12
1$
#3340
0"
02
0$
#3350
0!
1"
12
1$
00
0#
#3360
0"
02
0$
#3370
1"
12
1$
#3375
1!
10
1#
0'
04
#3380
0"
02
0$
#3390
1"
12
1$
#3400
0!
0"
02
0$
00
0#
#3410
1"
12
1$
#3420
0"
02
0$
#3425
1!
10
1#
b0 )
b0 6
#3430
1"
12
1$
#3440
0"
02
0$
#3450
0!
1"
12
1$
00
0#
#3460
0"
02
0$
#3470
1"
12
1$
#3475
1!
10
1#
#3480
0"
02
0$
#3490
1"
12
1$
1(
0(
#3500
0!
0"
02
0$
00
0#
#3510
1"
12
1$
#3520
0"
02
0$
#3525
1!
10
1#
#3530
1"
12
1$
#3540
0"
02
0$
#3550
0!
1"
12
1$
00
0#
#3560
0"
02
0$
#3570
1"
12
1$
#3575
1!
10
1#
#3580
0"
02
0$
#3590
1"
12
1$
1(
0(
#3600
0!
0"
02
0$
00
0#
#3610
1"
12
1$
#3620
0"
02
0$
#3625
1!
10
1#
1'
b1100000000000001 )
b1100000000000001 6
14
#3630
1"
12
1$
#3640
0"
02
0$
#3650
0!
1"
12
1$
00
0#
#3660
0"
02
0$
#3670
1"
12
1$
#3675
1!
10
1#
0'
04
#3680
0"
02
0$
#3690
1"
12
1$
#3700
0!
0"
02
0$
00
0#
#3710
1"
12
1$
#3720
0"
02
0$
#3725
1!
10
1#
b0 )
b0 6
#3730
1"
12
1$
#3740
0"
02
0$
#3750
0!
1"
12
1$
00
0#
#3760
0"
02
0$
#3770
1"
12
1$
#3775
1!
10
1#
#3780
0"
02
0$
#3790
1"
12
1$
1(
0(
#3800
0!
0"
02
0$
00
0#
#3810
1"
12
1$
#3820
0"
02
0$
#3825
1!
10
1#
1'
b1100000000000010 )
b1100000000000010 6
14
#3830
1"
12
1$
#3840
0"
02
0$
#3850
0!
1"
12
1$
00
0#
#3860
0"
02
0$
#3870
1"
12
1$
#3875
1!
10
1#
0'
04
#3880
0"
02
0$
#3890
1"
12
1$
#3900
0!
0"
02
0$
00
0#
#3910
1"
12
1$
#3920
0"
02
0$
#3925
1!
10
1#
b0 )
b0 6
#3930
1"
12
1$
#3940
0"
02
0$
#3950
0!
1"
12
1$
00
0#
#3960
0"
02
0$
#3970
1"
12
1$
#3975
1!
10
1#
#3980
0"
02
0$
#3990
1"
12
1$
1(
0(
#4000
0!
0"
02
0$
00
0#
#4010
1"
12
1$
#4020
0"
02
0$
#4025
1!
10
1#
1'
b1100000000000011 )
b1100000000000011 6
14
#4030
1"
12
1$
#4040
0"
02
0$
#4050
0!
1"
12
1$
00
0#
#4060
0"
02
0$
#4070
1"
12
1$
#4075
1!
10
1#
0'
04
#4080
0"
02
0$
#4090
1"
12
1$
#4100
0!
0"
02
0$
00
0#
#4110
1"
12
1$
#4120
0"
02
0$
#4125
1!
10
1#
b0 )
b0 6
#4130
1"
12
1$
#4140
0"
02
0$
#4150
0!
1"
12
1$
00
0#
#4160
0"
02
0$
#4170
1"
12
1$
#4175
1!
10
1#
#4180
0"
02
0$
#4190
1"
12
1$
1(
0(
#4200
0!
0"
02
0$
00
0#
#4210
1"
12
1$
#4220
0"
02
0$
#4225
1!
10
1#
1'
b1100000000000100 )
b1100000000000100 6
14
#4230
1"
12
1$
#4240
0"
02
0$
#4250
0!
1"
12
1$
00
0#
#4260
0"
02
0$
#4270
1"
12
1$
#4275
1!
10
1#
0'
04
#4280
0"
02
0$
#4290
1"
12
1$
#4300
0!
0"
02
0$
00
0#
#4310
1"
12
1$
#4320
0"
02
0$
#4325
1!
10
1#
b0 )
b0 6
#4330
1"
12
1$
#4340
0"
02
0$
#4350
0!
1"
12
1$
00
0#
#4360
0"
02
0$
#4370
1"
12
1$
#4375
1!
10
1#
#4380
0"
02
0$
#4390
1"
12
1$
1(
0(
#4400
0!
0"
02
0$
00
0#
#4410
1"
12
1$
#4420
0"
02
0$
#4425
1!
10
1#
1'
b1100000000000101 )
b1100000000000101 6
14
#4430
1"
12
1$
#4440
0"
02
0$
#4450
0!
1"
12
1$
00
0#
#4460
0"
02
0$
#4470
1"
12
1$
#4475
1!
10
1#
0'
04
#4480
0"
02
0$
#4490
1"
12
1$
#4500
0!
0"
02
0$
00
0#
#4510
1"
12
1$
#4520
0"
02
0$
#4525
1!
10
1#
b0 )
b0 6
#4530
1"
12
1$
#4540
0"
02
0$
#4550
0!
1"
12
1$
00
0#
#4560
0"
02
0$
#4570
1"
12
1$
#4575
1!
10
1#
#4580
0"
02
0$
#4590
1"
12
1$
1(
0(
#4600
0!
0"
02
0$
00
0#
#4610
1"
12
1$
#4620
0"
02
0$
#4625
1!
10
1#
1'
b1100000000000110 )
b1100000000000110 6
14
#4630
1"
12
1$
#4640
0"
02
0$
#4650
0!
1"
12
1$
00
0#
#4660
0"
02
0$
#4670
1"
12
1$
#4675
1!
10
1#
0'
04
#4680
0"
02
0$
#4690
1"
12
1$
#4700
0!
0"
02
0$
00
0#
#4710
1"
12
1$
#4720
0"
02
0$
#4725
1!
10
1#
b0 )
b0 6
#4730
1"
12
1$
#4740
0"
02
0$
#4750
0!
1"
12
1$
00
0#
#4760
0"
02
0$
#4770
1"
12
1$
#4775
1!
10
1#
#4780
0"
02
0$
#4790
1"
12
1$
1(
0(
#4800
0!
0"
02
0$
00
0#
#4810
1"
12
1$
#4820
0"
02
0$
#4825
1!
10
1#
1'
b1100000000000111 )
b1100000000000111 6
14
#4830
1"
12
1$
#4840
0"
02
0$
#4850
0!
1"
12
1$
00
0#
#4860
0"
02
0$
#4870
1"
12
1$
#4875
1!
10
1#
0'
04
#4880
0"
02
0$
#4890
1"
12
1$
#4900
0!
0"
02
0$
00
0#
#4910
1"
12
1$
#4920
0"
02
0$
#4925
1!
10
1#
b0 )
b0 6
#4930
1"
12
1$
#4940
0"
02
0$
#4950
0!
1"
12
1$
00
0#
#4960
0"
02
0$
#4970
1"
12
1$
#4975
1!
10
1#
#4980
0"
02
0$
#4990
1"
12
1$
1(
0(
#5000
0!
0"
02
0$
00
0#
#5010
1"
12
1$
#5020
0"
02
0$
#5025
1!
10
1#
1'
b1100000000001000 )
b1100000000001000 6
14
#5030
1"
12
1$
#5040
0"
02
0$
#5050
0!
1"
12
1$
00
0#
#5060
0"
02
0$
#5070
1"
12
1$
#5075
1!
10
1#
0'
04
#5080
0"
02
0$
#5090
1"
12
1$
#5100
0!
0"
02
0$
00
0#
#5110
1"
12
1$
#5120
0"
02
0$
#5125
1!
10
1#
b0 )
b0 6
#5130
1"
12
1$
#5140
0"
02
0$
#5150
0!
1"
12
1$
00
0#
#5160
0"
02
0$
#5170
1"
12
1$
#5175
1!
10
1#
#5180
0"
02
0$
#5190
1"
12
1$
1(
0(
